FPGA_sendwave/prj/simulation/qsim/DAC904_HighSpeedDAC.msim.vcd
$comment
	File created using the following command:
		vcd file DAC904_HighSpeedDAC.msim.vcd -direction
$end
$date
	Thu May 28 23:23:05 2026
$end
$version
	ModelSim Version 10.1d
$end
$timescale
	1ps
$end
$scope module UartRx_vlg_vec_tst $end
$var reg 1 ! clk $end
$var reg 1 " rstn $end
$var reg 1 # uart_rx $end
$var wire 1 $ rx_data [7] $end
$var wire 1 % rx_data [6] $end
$var wire 1 & rx_data [5] $end
$var wire 1 ' rx_data [4] $end
$var wire 1 ( rx_data [3] $end
$var wire 1 ) rx_data [2] $end
$var wire 1 * rx_data [1] $end
$var wire 1 + rx_data [0] $end
$var wire 1 , rx_done $end
$var wire 1 - sampler $end
$scope module i1 $end
$var wire 1 . gnd $end
$var wire 1 / vcc $end
$var wire 1 0 unknown $end
$var tri1 1 1 devclrn $end
$var tri1 1 2 devpor $end
$var tri1 1 3 devoe $end
$var wire 1 4 rx_data[0]~output_o $end
$var wire 1 5 rx_data[1]~output_o $end
$var wire 1 6 rx_data[2]~output_o $end
$var wire 1 7 rx_data[3]~output_o $end
$var wire 1 8 rx_data[4]~output_o $end
$var wire 1 9 rx_data[5]~output_o $end
$var wire 1 : rx_data[6]~output_o $end
$var wire 1 ; rx_data[7]~output_o $end
$var wire 1 < rx_done~output_o $end
$var wire 1 = clk~input_o $end
$var wire 1 > clk~inputclkctrl_outclk $end
$var wire 1 ? uart_rx~input_o $end
$var wire 1 @ uart_rx_meta~0_combout $end
$var wire 1 A rstn~input_o $end
$var wire 1 B rstn~inputclkctrl_outclk $end
$var wire 1 C uart_rx_meta~q $end
$var wire 1 D uart_rx_sync~q $end
$var wire 1 E Selector17~0_combout $end
$var wire 1 F Selector17~1_combout $end
$var wire 1 G Selector16~0_combout $end
$var wire 1 H Selector20~1_combout $end
$var wire 1 I Selector16~1_combout $end
$var wire 1 J Selector16~2_combout $end
$var wire 1 K Selector20~2_combout $end
$var wire 1 L Selector22~0_combout $end
$var wire 1 M state.S_STOP~q $end
$var wire 1 N clk_cnt[15]~5_combout $end
$var wire 1 O clk_cnt[15]~4_combout $end
$var wire 1 P clk_cnt[7]~15_combout $end
$var wire 1 Q Add0~0_combout $end
$var wire 1 R clk_cnt[0]~19_combout $end
$var wire 1 S clk_cnt[0]~23_combout $end
$var wire 1 T Add0~1 $end
$var wire 1 U Add0~2_combout $end
$var wire 1 V clk_cnt[1]~22_combout $end
$var wire 1 W Add0~3 $end
$var wire 1 X Add0~4_combout $end
$var wire 1 Y clk_cnt[2]~21_combout $end
$var wire 1 Z Add0~5 $end
$var wire 1 [ Add0~6_combout $end
$var wire 1 \ clk_cnt[6]~17_combout $end
$var wire 1 ] clk_cnt[3]~25_combout $end
$var wire 1 ^ Add0~7 $end
$var wire 1 _ Add0~8_combout $end
$var wire 1 ` clk_cnt[4]~20_combout $end
$var wire 1 a Add0~9 $end
$var wire 1 b Add0~10_combout $end
$var wire 1 c clk_cnt[8]~13_combout $end
$var wire 1 d clk_cnt[5]~18_combout $end
$var wire 1 e Add0~11 $end
$var wire 1 f Add0~12_combout $end
$var wire 1 g clk_cnt[6]~24_combout $end
$var wire 1 h Add0~13 $end
$var wire 1 i Add0~14_combout $end
$var wire 1 j clk_cnt[7]~16_combout $end
$var wire 1 k Add0~15 $end
$var wire 1 l Add0~16_combout $end
$var wire 1 m clk_cnt[8]~14_combout $end
$var wire 1 n Add0~17 $end
$var wire 1 o Add0~18_combout $end
$var wire 1 p clk_cnt[9]~12_combout $end
$var wire 1 q Add0~19 $end
$var wire 1 r Add0~20_combout $end
$var wire 1 s clk_cnt[10]~11_combout $end
$var wire 1 t Add0~21 $end
$var wire 1 u Add0~22_combout $end
$var wire 1 v clk_cnt[11]~10_combout $end
$var wire 1 w Equal1~1_combout $end
$var wire 1 x Add0~23 $end
$var wire 1 y Add0~24_combout $end
$var wire 1 z clk_cnt[12]~9_combout $end
$var wire 1 { Add0~25 $end
$var wire 1 | Add0~26_combout $end
$var wire 1 } clk_cnt[13]~8_combout $end
$var wire 1 ~ Add0~27 $end
$var wire 1 !! Add0~28_combout $end
$var wire 1 "! clk_cnt[14]~7_combout $end
$var wire 1 #! Add0~29 $end
$var wire 1 $! Add0~30_combout $end
$var wire 1 %! clk_cnt[15]~6_combout $end
$var wire 1 &! Equal1~0_combout $end
$var wire 1 '! Equal1~3_combout $end
$var wire 1 (! Equal1~2_combout $end
$var wire 1 )! Equal1~4_combout $end
$var wire 1 *! Selector19~0_combout $end
$var wire 1 +! Selector21~0_combout $end
$var wire 1 ,! state.S_DATA~q $end
$var wire 1 -! Selector19~1_combout $end
$var wire 1 .! Selector19~2_combout $end
$var wire 1 /! Selector19~3_combout $end
$var wire 1 0! state.S_IDLE~q $end
$var wire 1 1! Selector20~3_combout $end
$var wire 1 2! Selector20~4_combout $end
$var wire 1 3! Selector20~5_combout $end
$var wire 1 4! state.S_START~q $end
$var wire 1 5! Selector18~0_combout $end
$var wire 1 6! Selector18~1_combout $end
$var wire 1 7! Decoder0~0_combout $end
$var wire 1 8! rx_shift[0]~0_combout $end
$var wire 1 9! rx_data[0]~0_combout $end
$var wire 1 :! rx_data[0]~reg0_q $end
$var wire 1 ;! Decoder0~1_combout $end
$var wire 1 <! rx_shift[1]~1_combout $end
$var wire 1 =! rx_data[1]~reg0_q $end
$var wire 1 >! Decoder0~2_combout $end
$var wire 1 ?! rx_shift[2]~2_combout $end
$var wire 1 @! rx_data[2]~reg0_q $end
$var wire 1 A! Decoder0~3_combout $end
$var wire 1 B! rx_shift[3]~3_combout $end
$var wire 1 C! rx_data[3]~reg0_q $end
$var wire 1 D! Decoder0~4_combout $end
$var wire 1 E! rx_shift[4]~4_combout $end
$var wire 1 F! rx_data[4]~reg0_q $end
$var wire 1 G! Decoder0~5_combout $end
$var wire 1 H! rx_shift[5]~5_combout $end
$var wire 1 I! rx_data[5]~reg0_q $end
$var wire 1 J! Decoder0~6_combout $end
$var wire 1 K! rx_shift[6]~6_combout $end
$var wire 1 L! rx_data[6]~reg0_q $end
$var wire 1 M! Decoder0~7_combout $end
$var wire 1 N! rx_shift[7]~7_combout $end
$var wire 1 O! rx_data[7]~reg0_q $end
$var wire 1 P! rx_done~reg0_q $end
$var wire 1 Q! clk_cnt [15] $end
$var wire 1 R! clk_cnt [14] $end
$var wire 1 S! clk_cnt [13] $end
$var wire 1 T! clk_cnt [12] $end
$var wire 1 U! clk_cnt [11] $end
$var wire 1 V! clk_cnt [10] $end
$var wire 1 W! clk_cnt [9] $end
$var wire 1 X! clk_cnt [8] $end
$var wire 1 Y! clk_cnt [7] $end
$var wire 1 Z! clk_cnt [6] $end
$var wire 1 [! clk_cnt [5] $end
$var wire 1 \! clk_cnt [4] $end
$var wire 1 ]! clk_cnt [3] $end
$var wire 1 ^! clk_cnt [2] $end
$var wire 1 _! clk_cnt [1] $end
$var wire 1 `! clk_cnt [0] $end
$var wire 1 a! bit_cnt [2] $end
$var wire 1 b! bit_cnt [1] $end
$var wire 1 c! bit_cnt [0] $end
$var wire 1 d! rx_shift [7] $end
$var wire 1 e! rx_shift [6] $end
$var wire 1 f! rx_shift [5] $end
$var wire 1 g! rx_shift [4] $end
$var wire 1 h! rx_shift [3] $end
$var wire 1 i! rx_shift [2] $end
$var wire 1 j! rx_shift [1] $end
$var wire 1 k! rx_shift [0] $end
$upscope $end
$upscope $end
$enddefinitions $end
#0
$dumpvars
0!
0"
0#
0+
0*
0)
0(
0'
0&
0%
0$
0,
x-
0.
1/
x0
11
12
13
04
05
06
07
08
09
0:
0;
0<
0=
0>
0?
1@
0A
0B
0C
0D
0E
0F
0G
0H
0I
0J
0K
0L
0M
0N
1O
1P
1Q
1R
0S
0T
1U
0V
1W
1X
0Y
0Z
1[
1\
0]
1^
1_
0`
0a
1b
0c
0d
1e
1f
0g
0h
1i
0j
1k
1l
0m
0n
1o
0p
1q
1r
0s
0t
1u
0v
1w
1x
1y
0z
0{
1|
0}
1~
1!!
0"!
0#!
1$!
0%!
1&!
1'!
1(!
1)!
0*!
0+!
0,!
0-!
0.!
0/!
00!
11!
02!
03!
04!
05!
06!
07!
08!
09!
0:!
0;!
0<!
0=!
0>!
0?!
0@!
0A!
0B!
0C!
0D!
0E!
0F!
0G!
0H!
0I!
0J!
0K!
0L!
0M!
0N!
0O!
0P!
0`!
0_!
0^!
0]!
0\!
0[!
0Z!
0Y!
0X!
0W!
0V!
0U!
0T!
0S!
0R!
0Q!
0c!
0b!
0a!
0k!
0j!
0i!
0h!
0g!
0f!
0e!
0d!
$end
#5000
1!
1=
1>
0-
#10000
1"
0!
1A
0=
1B
0>
1-
#15000
1!
1=
1>
0-
1C
#20000
1#
0!
1?
0=
0>
1-
0@
#25000
1!
1=
1>
0-
1D
0C
01!
1-!
1g
1]
13!
0R
0P
1.!
1`
1S
1j
1/!
#30000
0!
0=
0>
1-
#35000
1!
1=
1>
0-
14!
10!
1Y!
1Z!
1\!
1]!
1`!
0D
1*!
0\
1N
11!
0.!
1c
0(!
0k
0i
1h
0f
1a
0_
0'!
0^
0[
1T
0Q
0-!
0/!
0c
0g
0]
0j
0`
0S
03!
1m
1d
0)!
1n
0l
1i
0e
0b
1_
0W
0U
0m
0d
13!
0*!
1R
1P
0O
0N
0q
0o
1f
1Z
0X
1/!
1c
1`
1j
1%!
1"!
1}
1z
1v
1s
1\
1t
0r
1[
1g
1]
0x
0u
0s
1{
0y
0v
0~
0|
0z
1#!
0!!
0}
0$!
0"!
0%!
#40000
0#
0!
0?
0=
0>
1-
1@
#45000
1!
1=
1>
0-
0`!
1C
0T
1Q
1W
1U
1S
0Z
1X
1V
0[
1Y
0]
#50000
1#
0!
1?
0=
0>
1-
0@
#55000
1!
1=
1>
0-
0]!
1^!
1_!
1`!
1D
0C
1^
1[
1Z
0X
0W
0U
1T
0Q
1-!
0_
1]
0^
0[
0Y
1X
0V
1U
0S
0`
1_
0]
1Y
1V
1`
#60000
0#
0!
0?
0=
0>
1-
1@
#65000
1!
1=
1>
0-
0`!
0D
1C
0T
1Q
0-!
0U
1S
0V
#70000
0!
0=
0>
1-
#75000
1!
1=
1>
0-
0_!
1`!
1D
1W
1U
1T
0Q
1-!
0X
1V
0W
0U
0S
0Y
1X
0V
1Y
#80000
1#
0!
1?
0=
0>
1-
0@
#85000
1!
1=
1>
0-
0`!
0C
0T
1Q
1W
1U
1S
0X
1V
0Y
#90000
0#
0!
0?
0=
0>
1-
1@
#95000
1!
1=
1>
0-
0^!
1_!
1`!
0D
1C
0Z
1X
0W
0U
1T
0Q
0-!
1^
1[
1Y
1Z
0X
0V
1U
0S
0_
1]
0^
0[
0Y
1V
0`
1_
0]
1`
#100000
1#
0!
1?
0=
0>
1-
0@
#105000
1!
1=
1>
0-
0`!
1D
0C
0T
1Q
1-!
0U
1S
0V
#110000
0!
0=
0>
1-
#115000
1!
1=
1>
0-
0_!
1`!
0D
1W
1U
1T
0Q
0-!
0Z
1X
1V
0W
0U
0S
1^
1[
1Y
1Z
0X
0V
0_
1]
0^
0[
0Y
0`
1_
0]
1`
#120000
0#
0!
0?
0=
0>
1-
1@
#125000
1!
1=
1>
0-
0`!
1C
1'!
0T
1Q
1W
1U
1S
0Z
1X
1V
1^
1[
1Y
0_
1]
0`
#130000
0!
0=
0>
1-
#135000
1!
1=
1>
0-
0\!
1]!
1^!
1_!
1`!
1D
0a
1_
0'!
0^
0[
1Z
0X
0W
0U
1T
0Q
1-!
1e
1b
1`
1a
0_
0]
1[
0Y
1X
0V
1U
0S
0f
1d
0e
0b
0`
1]
1Y
1V
0g
1f
0d
1g
#140000
0!
0=
0>
1-
#145000
1!
1=
1>
0-
0`!
0T
1Q
0U
1S
0V
#150000
0!
0=
0>
1-
#155000
1!
1=
1>
0-
0_!
1`!
1W
1U
1T
0Q
0X
1V
0W
0U
0S
0Y
1X
0V
1Y
#160000
0!
0=
0>
1-
#165000
1!
1=
1>
0-
0`!
0T
1Q
1W
1U
1S
0X
1V
0Y
#170000
0!
0=
0>
1-
#175000
1!
1=
1>
0-
0^!
1_!
1`!
0Z
1X
0W
0U
1T
0Q
0[
1Y
1Z
0X
0V
1U
0S
0]
1[
0Y
1V
1]
#180000
0!
0=
0>
1-
#185000
1!
1=
1>
0-
0`!
0T
1Q
0U
1S
0V
#190000
0!
0=
0>
1-
#195000
1!
1=
1>
0-
0_!
1`!
1W
1U
1T
0Q
0Z
1X
1V
0W
0U
0S
0[
1Y
1Z
0X
0V
0]
1[
0Y
1]
#200000
0!
0=
0>
1-
#205000
1!
1=
1>
0-
0`!
0T
1Q
1W
1U
1S
0Z
1X
1V
0[
1Y
0]
#210000
0!
0=
0>
1-
#215000
1!
1=
1>
0-
0]!
1^!
1_!
1`!
1^
1[
1Z
0X
0W
0U
1T
0Q
0a
1_
1]
0^
0[
0Y
1X
0V
1U
0S
1e
1b
1`
1a
0_
0]
1Y
1V
0f
1d
0e
0b
0`
0g
1f
0d
1g
#220000
0!
0=
0>
1-
#225000
1!
1=
1>
0-
0`!
0T
1Q
0U
1S
0V
#230000
0!
0=
0>
1-
#235000
1!
1=
1>
0-
0_!
1`!
1W
1U
1T
0Q
0X
1V
0W
0U
0S
0Y
1X
0V
1Y
#240000
0!
0=
0>
1-
#245000
1!
1=
1>
0-
0`!
0T
1Q
1W
1U
1S
0X
1V
0Y
#250000
0!
0=
0>
1-
#255000
1!
1=
1>
0-
0^!
1_!
1`!
0Z
1X
0W
0U
1T
0Q
1^
1[
1Y
1Z
0X
0V
1U
0S
0a
1_
1]
0^
0[
0Y
1V
1e
1b
1`
1a
0_
0]
0f
1d
0e
0b
0`
0g
1f
0d
1g
#260000
0!
0=
0>
1-
#265000
1!
1=
1>
0-
0`!
0T
1Q
0U
1S
0V
#270000
0!
0=
0>
1-
#275000
1!
1=
1>
0-
0_!
1`!
1W
1U
1T
0Q
0Z
1X
1V
0W
0U
0S
1^
1[
1Y
1Z
0X
0V
0a
1_
1]
0^
0[
0Y
1e
1b
1`
1a
0_
0]
0f
1d
0e
0b
0`
0g
1f
0d
1g
#280000
0!
0=
0>
1-
#285000
1!
1=
1>
0-
0`!
1'!
0T
1Q
1W
1U
1S
0Z
1X
1V
1^
1[
1Y
0a
1_
1]
1e
1b
1`
0f
1d
0g
#290000
0!
0=
0>
1-
#295000
1!
1=
1>
0-
0Z!
1[!
1\!
1]!
1^!
1_!
1`!
0h
1f
0e
0b
1a
0_
0'!
0^
0[
1Z
0X
0W
0U
1T
0Q
0i
1g
1h
0f
0d
1b
0`
1_
0]
1[
0Y
1X
0V
1U
0S
0j
1i
0g
1d
1`
1]
1Y
1V
1j
#300000
0!
0=
0>
1-
#305000
1!
1=
1>
0-
0`!
0T
1Q
0U
1S
0V
#310000
0!
0=
0>
1-
#315000
1!
1=
1>
0-
0_!
1`!
1W
1U
1T
0Q
0X
1V
0W
0U
0S
0Y
1X
0V
1Y
#320000
0!
0=
0>
1-
#325000
1!
1=
1>
0-
0`!
0T
1Q
1W
1U
1S
0X
1V
0Y
#330000
0!
0=
0>
1-
#335000
1!
1=
1>
0-
0^!
1_!
1`!
0Z
1X
0W
0U
1T
0Q
0[
1Y
1Z
0X
0V
1U
0S
0]
1[
0Y
1V
1]
#340000
0!
0=
0>
1-
#345000
1!
1=
1>
0-
0`!
0T
1Q
0U
1S
0V
#350000
0!
0=
0>
1-
#355000
1!
1=
1>
0-
0_!
1`!
1W
1U
1T
0Q
0Z
1X
1V
0W
0U
0S
0[
1Y
1Z
0X
0V
0]
1[
0Y
1]
#360000
0!
0=
0>
1-
#365000
1!
1=
1>
0-
0`!
0T
1Q
1W
1U
1S
0Z
1X
1V
0[
1Y
0]
#370000
0!
0=
0>
1-
#375000
1!
1=
1>
0-
0]!
1^!
1_!
1`!
1^
1[
1Z
0X
0W
0U
1T
0Q
0_
1]
0^
0[
0Y
1X
0V
1U
0S
0`
1_
0]
1Y
1V
1`
#380000
0!
0=
0>
1-
#385000
1!
1=
1>
0-
0`!
0T
1Q
0U
1S
0V
#390000
0!
0=
0>
1-
#395000
1!
1=
1>
0-
0_!
1`!
1W
1U
1T
0Q
0X
1V
0W
0U
0S
0Y
1X
0V
1Y
#400000
0!
0=
0>
1-
#405000
1!
1=
1>
0-
0`!
0T
1Q
1W
1U
1S
0X
1V
0Y
#410000
0!
0=
0>
1-
#415000
1!
1=
1>
0-
0^!
1_!
1`!
0Z
1X
0W
0U
1T
0Q
1^
1[
1Y
1Z
0X
0V
1U
0S
0_
1]
0^
0[
0Y
1V
0`
1_
0]
1`
#420000
0!
0=
0>
1-
#425000
1!
1=
1>
0-
0`!
0T
1Q
0U
1S
0V
#430000
0!
0=
0>
1-
#435000
1!
1=
1>
0-
0_!
1`!
1W
1U
1T
0Q
0Z
1X
1V
0W
0U
0S
1^
1[
1Y
1Z
0X
0V
0_
1]
0^
0[
0Y
0`
1_
0]
1`
#440000
0!
0=
0>
1-
#445000
1!
1=
1>
0-
0`!
1'!
0T
1Q
1W
1U
1S
0Z
1X
1V
1^
1[
1Y
0_
1]
0`
#450000
0!
0=
0>
1-
#455000
1!
1=
1>
0-
0\!
1]!
1^!
1_!
1`!
0a
1_
0'!
0^
0[
1Z
0X
0W
0U
1T
0Q
0b
1`
1a
0_
0]
1[
0Y
1X
0V
1U
0S
0d
1b
0`
1]
1Y
1V
1d
#460000
0!
0=
0>
1-
#465000
1!
1=
1>
0-
0`!
0T
1Q
0U
1S
0V
#470000
0!
0=
0>
1-
#475000
1!
1=
1>
0-
0_!
1`!
1W
1U
1T
0Q
0X
1V
0W
0U
0S
0Y
1X
0V
1Y
#480000
0!
0=
0>
1-
#485000
1!
1=
1>
0-
0`!
0T
1Q
1W
1U
1S
0X
1V
0Y
#490000
0!
0=
0>
1-
#495000
1!
1=
1>
0-
0^!
1_!
1`!
0Z
1X
0W
0U
1T
0Q
0[
1Y
1Z
0X
0V
1U
0S
0]
1[
0Y
1V
1]
#500000
0!
0=
0>
1-
#505000
1!
1=
1>
0-
0`!
0T
1Q
0U
1S
0V
#510000
0!
0=
0>
1-
#515000
1!
1=
1>
0-
0_!
1`!
1W
1U
1T
0Q
0Z
1X
1V
0W
0U
0S
0[
1Y
1Z
0X
0V
0]
1[
0Y
1]
#520000
0!
0=
0>
1-
#525000
1!
1=
1>
0-
0`!
0T
1Q
1W
1U
1S
0Z
1X
1V
0[
1Y
0]
#530000
0!
0=
0>
1-
#535000
1!
1=
1>
0-
0]!
1^!
1_!
1`!
1^
1[
1Z
0X
0W
0U
1T
0Q
0a
1_
1]
0^
0[
0Y
1X
0V
1U
0S
0b
1`
1a
0_
0]
1Y
1V
0d
1b
0`
1d
#540000
0!
0=
0>
1-
#545000
1!
1=
1>
0-
0`!
0T
1Q
0U
1S
0V
#550000
0!
0=
0>
1-
#555000
1!
1=
1>
0-
0_!
1`!
1W
1U
1T
0Q
0X
1V
0W
0U
0S
0Y
1X
0V
1Y
#560000
0!
0=
0>
1-
#565000
1!
1=
1>
0-
0`!
0T
1Q
1W
1U
1S
0X
1V
0Y
#570000
0!
0=
0>
1-
#575000
1!
1=
1>
0-
0^!
1_!
1`!
0Z
1X
0W
0U
1T
0Q
1^
1[
1Y
1Z
0X
0V
1U
0S
0a
1_
1]
0^
0[
0Y
1V
0b
1`
1a
0_
0]
0d
1b
0`
1d
#580000
0!
0=
0>
1-
#585000
1!
1=
1>
0-
0`!
0T
1Q
0U
1S
0V
#590000
0!
0=
0>
1-
#595000
1!
1=
1>
0-
0_!
1`!
1W
1U
1T
0Q
0Z
1X
1V
0W
0U
0S
1^
1[
1Y
1Z
0X
0V
0a
1_
1]
0^
0[
0Y
0b
1`
1a
0_
0]
0d
1b
0`
1d
#600000
0!
0=
0>
1-
#605000
1!
1=
1>
0-
0`!
1'!
0T
1Q
1W
1U
1S
0Z
1X
1V
1^
1[
1Y
0a
1_
1]
0b
1`
0d
#610000
0!
0=
0>
1-
#615000
1!
1=
1>
0-
0[!
1\!
1]!
1^!
1_!
1`!
1e
1b
1a
0_
0'!
0^
0[
1Z
0X
0W
0U
1T
0Q
0h
1f
1d
0e
0b
0`
1_
0]
1[
0Y
1X
0V
1U
0S
0i
1g
1h
0f
0d
1`
1]
1Y
1V
0j
1i
0g
1j
#620000
0!
0=
0>
1-
#625000
1!
1=
1>
0-
0`!
0T
1Q
0U
1S
0V
#630000
0!
0=
0>
1-
#635000
1!
1=
1>
0-
0_!
1`!
1W
1U
1T
0Q
0X
1V
0W
0U
0S
0Y
1X
0V
1Y
#640000
0!
0=
0>
1-
#645000
1!
1=
1>
0-
0`!
0T
1Q
1W
1U
1S
0X
1V
0Y
#650000
0!
0=
0>
1-
#655000
1!
1=
1>
0-
0^!
1_!
1`!
0Z
1X
0W
0U
1T
0Q
0[
1Y
1Z
0X
0V
1U
0S
0]
1[
0Y
1V
1]
#660000
0!
0=
0>
1-
#665000
1!
1=
1>
0-
0`!
0T
1Q
0U
1S
0V
#670000
0!
0=
0>
1-
#675000
1!
1=
1>
0-
0_!
1`!
1W
1U
1T
0Q
0Z
1X
1V
0W
0U
0S
0[
1Y
1Z
0X
0V
0]
1[
0Y
1]
#680000
0!
0=
0>
1-
#685000
1!
1=
1>
0-
0`!
0T
1Q
1W
1U
1S
0Z
1X
1V
0[
1Y
0]
#690000
0!
0=
0>
1-
#695000
1!
1=
1>
0-
0]!
1^!
1_!
1`!
1^
1[
1Z
0X
0W
0U
1T
0Q
0_
1]
0^
0[
0Y
1X
0V
1U
0S
0`
1_
0]
1Y
1V
1`
#700000
0!
0=
0>
1-
#705000
1!
1=
1>
0-
0`!
0T
1Q
0U
1S
0V
#710000
0!
0=
0>
1-
#715000
1!
1=
1>
0-
0_!
1`!
1W
1U
1T
0Q
0X
1V
0W
0U
0S
0Y
1X
0V
1Y
#720000
0!
0=
0>
1-
#725000
1!
1=
1>
0-
0`!
0T
1Q
1W
1U
1S
0X
1V
0Y
#730000
0!
0=
0>
1-
#735000
1!
1=
1>
0-
0^!
1_!
1`!
0Z
1X
0W
0U
1T
0Q
1^
1[
1Y
1Z
0X
0V
1U
0S
0_
1]
0^
0[
0Y
1V
0`
1_
0]
1`
#740000
0!
0=
0>
1-
#745000
1!
1=
1>
0-
0`!
0T
1Q
0U
1S
0V
#750000
0!
0=
0>
1-
#755000
1!
1=
1>
0-
0_!
1`!
1W
1U
1T
0Q
0Z
1X
1V
0W
0U
0S
1^
1[
1Y
1Z
0X
0V
0_
1]
0^
0[
0Y
0`
1_
0]
1`
#760000
0!
0=
0>
1-
#765000
1!
1=
1>
0-
0`!
1'!
0T
1Q
1W
1U
1S
0Z
1X
1V
1^
1[
1Y
0_
1]
0`
#770000
0!
0=
0>
1-
#775000
1!
1=
1>
0-
0\!
1]!
1^!
1_!
1`!
0a
1_
0'!
0^
0[
1Z
0X
0W
0U
1T
0Q
1e
1b
1`
1a
0_
0]
1[
0Y
1X
0V
1U
0S
0h
1f
1d
0e
0b
0`
1]
1Y
1V
0i
1g
1h
0f
0d
0j
1i
0g
1j
#780000
0!
0=
0>
1-
#785000
1!
1=
1>
0-
0`!
0T
1Q
0U
1S
0V
#790000
0!
0=
0>
1-
#795000
1!
1=
1>
0-
0_!
1`!
1W
1U
1T
0Q
0X
1V
0W
0U
0S
0Y
1X
0V
1Y
#800000
0!
0=
0>
1-
#805000
1!
1=
1>
0-
0`!
0T
1Q
1W
1U
1S
0X
1V
0Y
#810000
0!
0=
0>
1-
#815000
1!
1=
1>
0-
0^!
1_!
1`!
0Z
1X
0W
0U
1T
0Q
0[
1Y
1Z
0X
0V
1U
0S
0]
1[
0Y
1V
1]
#820000
0!
0=
0>
1-
#825000
1!
1=
1>
0-
0`!
0T
1Q
0U
1S
0V
#830000
0!
0=
0>
1-
#835000
1!
1=
1>
0-
0_!
1`!
1W
1U
1T
0Q
0Z
1X
1V
0W
0U
0S
0[
1Y
1Z
0X
0V
0]
1[
0Y
1]
#840000
0!
0=
0>
1-
#845000
1!
1=
1>
0-
0`!
0T
1Q
1W
1U
1S
0Z
1X
1V
0[
1Y
0]
#850000
0!
0=
0>
1-
#855000
1!
1=
1>
0-
0]!
1^!
1_!
1`!
1^
1[
1Z
0X
0W
0U
1T
0Q
0a
1_
1]
0^
0[
0Y
1X
0V
1U
0S
1e
1b
1`
1a
0_
0]
1Y
1V
0h
1f
1d
0e
0b
0`
0i
1g
1h
0f
0d
0j
1i
0g
1j
#860000
0!
0=
0>
1-
#865000
1!
1=
1>
0-
0`!
0T
1Q
0U
1S
0V
#870000
0!
0=
0>
1-
#875000
1!
1=
1>
0-
0_!
1`!
1W
1U
1T
0Q
0X
1V
0W
0U
0S
0Y
1X
0V
1Y
#880000
0!
0=
0>
1-
#885000
1!
1=
1>
0-
0`!
0T
1Q
1W
1U
1S
0X
1V
0Y
#890000
0!
0=
0>
1-
#895000
1!
1=
1>
0-
0^!
1_!
1`!
0Z
1X
0W
0U
1T
0Q
1^
1[
1Y
1Z
0X
0V
1U
0S
0a
1_
1]
0^
0[
0Y
1V
1e
1b
1`
1a
0_
0]
0h
1f
1d
0e
0b
0`
0i
1g
1h
0f
0d
0j
1i
0g
1j
#900000
0!
0=
0>
1-
#905000
1!
1=
1>
0-
0`!
0T
1Q
0U
1S
0V
#910000
0!
0=
0>
1-
#915000
1!
1=
1>
0-
0_!
1`!
1W
1U
1T
0Q
0Z
1X
1V
0W
0U
0S
1^
1[
1Y
1Z
0X
0V
0a
1_
1]
0^
0[
0Y
1e
1b
1`
1a
0_
0]
0h
1f
1d
0e
0b
0`
0i
1g
1h
0f
0d
0j
1i
0g
1j
#920000
0!
0=
0>
1-
#925000
1!
1=
1>
0-
0`!
1'!
0T
1Q
1W
1U
1S
0Z
1X
1V
1^
1[
1Y
0a
1_
1]
1e
1b
1`
0h
1f
1d
0i
1g
0j
#930000
0!
0=
0>
1-
#935000
1!
1=
1>
0-
0Y!
1Z!
1[!
1\!
1]!
1^!
1_!
1`!
1k
1i
1h
0f
0e
0b
1a
0_
0'!
0^
0[
1Z
0X
0W
0U
1T
0Q
0n
1l
1j
0k
0i
0g
1f
0d
1b
0`
1_
0]
1[
0Y
1X
0V
1U
0S
1q
1o
1m
1n
0l
0j
1g
1d
1`
1]
1Y
1V
0t
1r
1p
0q
0o
0m
1x
1u
1s
1t
0r
0p
0{
1y
1v
0x
0u
0s
1~
1|
1z
1{
0y
0v
0#!
1!!
1}
0~
0|
0z
1$!
1"!
1#!
0!!
0}
1%!
0$!
0"!
0%!
#940000
0!
0=
0>
1-
#945000
1!
1=
1>
0-
0`!
0T
1Q
0U
1S
0V
#950000
0!
0=
0>
1-
#955000
1!
1=
1>
0-
0_!
1`!
1W
1U
1T
0Q
0X
1V
0W
0U
0S
0Y
1X
0V
1Y
#960000
0!
0=
0>
1-
#965000
1!
1=
1>
0-
0`!
0T
1Q
1W
1U
1S
0X
1V
0Y
#970000
0!
0=
0>
1-
#975000
1!
1=
1>
0-
0^!
1_!
1`!
0Z
1X
0W
0U
1T
0Q
0[
1Y
1Z
0X
0V
1U
0S
0]
1[
0Y
1V
1]
#980000
0!
0=
0>
1-
#985000
1!
1=
1>
0-
0`!
0T
1Q
0U
1S
0V
#990000
0!
0=
0>
1-
#995000
1!
1=
1>
0-
0_!
1`!
1W
1U
1T
0Q
0Z
1X
1V
0W
0U
0S
0[
1Y
1Z
0X
0V
0]
1[
0Y
1]
